<svg width="24" height="31" viewBox="0 0 24 31" fill="none" xmlns="http://www.w3.org/2000/svg">
<path fill-rule="evenodd" clip-rule="evenodd" d="M18.7071 15.7963C18.7071 17.0523 19.039 17.7925 19.7695 18.6456C20.3231 19.2741 20.5 20.0808 20.5 20.956C20.5 21.8302 20.2128 22.6601 19.6373 23.3339C18.884 24.1417 17.8215 24.6573 16.7372 24.747C15.1659 24.8809 13.5937 24.9937 12.0005 24.9937C10.4063 24.9937 8.83505 24.9263 7.26375 24.747C6.17846 24.6573 5.11602 24.1417 4.36367 23.3339C3.78822 22.6601 3.5 21.8302 3.5 20.956C3.5 20.0808 3.6779 19.2741 4.23049 18.6456C4.98384 17.7925 5.29392 17.0523 5.29392 15.7963V15.3703C5.29392 13.6883 5.71333 12.5885 6.577 11.5119C7.86106 9.9417 9.91935 9 11.9558 9H12.0452C14.1254 9 16.2502 9.98702 17.5125 11.6247C18.3314 12.6792 18.7071 13.7327 18.7071 15.3703V15.7963ZM9.07367 27.0608C9.07367 26.5573 9.53582 26.3266 9.96318 26.2279C10.4631 26.1222 13.5093 26.1222 14.0092 26.2279C14.4366 26.3266 14.8987 26.5573 14.8987 27.0608C14.8738 27.5402 14.5926 27.9653 14.204 28.2352C13.7001 28.628 13.1088 28.8767 12.4906 28.9664C12.1487 29.0107 11.8128 29.0117 11.4828 28.9664C10.8636 28.8767 10.2723 28.628 9.76938 28.2342C9.37978 27.9653 9.09852 27.5402 9.07367 27.0608Z" fill="#2953A1"/>
<circle cx="8" cy="8" r="8" fill="#FE9B4B"/>
<path d="M4.91389 5.844C4.94589 4.94 5.22589 4.248 5.75389 3.768C6.28189 3.28 7.01789 3.036 7.96189 3.036C8.57789 3.036 9.10189 3.144 9.53389 3.36C9.97389 3.568 10.3059 3.856 10.5299 4.224C10.7539 4.584 10.8659 4.992 10.8659 5.448C10.8659 5.992 10.7339 6.428 10.4699 6.756C10.2059 7.076 9.90589 7.292 9.56989 7.404V7.452C10.5379 7.812 11.0219 8.5 11.0219 9.516C11.0219 10.02 10.9059 10.464 10.6739 10.848C10.4419 11.232 10.1059 11.532 9.66589 11.748C9.22589 11.964 8.70189 12.072 8.09389 12.072C7.09389 12.072 6.30189 11.832 5.71789 11.352C5.14189 10.864 4.84189 10.12 4.81789 9.12H7.10989C7.09389 9.44 7.16189 9.688 7.31389 9.864C7.46589 10.04 7.69389 10.128 7.99789 10.128C8.22989 10.128 8.40989 10.056 8.53789 9.912C8.67389 9.768 8.74189 9.576 8.74189 9.336C8.74189 9.032 8.64189 8.808 8.44189 8.664C8.24989 8.52 7.93389 8.448 7.49389 8.448H7.07389V6.54H7.48189C7.78589 6.548 8.04189 6.5 8.24989 6.396C8.46589 6.284 8.57389 6.064 8.57389 5.736C8.57389 5.488 8.51389 5.304 8.39389 5.184C8.27389 5.056 8.10989 4.992 7.90189 4.992C7.66989 4.992 7.49789 5.076 7.38589 5.244C7.28189 5.404 7.22189 5.604 7.20589 5.844H4.91389Z" fill="white"/>
</svg>
